com\gmail\andersoninfonet\projetorest\model\Empresa.class
com\gmail\andersoninfonet\projetorest\util\Response.class
com\gmail\andersoninfonet\projetorest\util\EncriptaUtil.class
com\gmail\andersoninfonet\projetorest\security\JwtUser.class
com\gmail\andersoninfonet\projetorest\security\dto\TokenDto.class
com\gmail\andersoninfonet\projetorest\config\DataConfig.class
com\gmail\andersoninfonet\projetorest\config\DataSourceConfig.class
com\gmail\andersoninfonet\projetorest\security\enums\PerfilEnum.class
com\gmail\andersoninfonet\projetorest\security\services\JwtUserDetailsServiceImpl.class
com\gmail\andersoninfonet\projetorest\service\UsuarioServiceImpl.class
com\gmail\andersoninfonet\projetorest\config\SwaggerConfig.class
com\gmail\andersoninfonet\projetorest\dto\EmpresaDTO.class
com\gmail\andersoninfonet\projetorest\model\Usuario.class
com\gmail\andersoninfonet\projetorest\security\utils\JwtTokenUtil.class
com\gmail\andersoninfonet\projetorest\service\ExemploService.class
com\gmail\andersoninfonet\projetorest\security\JwtAuthenticationEntryPoint.class
com\gmail\andersoninfonet\projetorest\config\ProdDataSource.class
com\gmail\andersoninfonet\projetorest\repository\UsuarioRepository.class
com\gmail\andersoninfonet\projetorest\security\controllers\AuthenticationController.class
com\gmail\andersoninfonet\projetorest\config\WebSecurityConfig.class
com\gmail\andersoninfonet\projetorest\config\DevDataSource.class
com\gmail\andersoninfonet\projetorest\controller\EmpresaController.class
com\gmail\andersoninfonet\projetorest\ProjetoRestApp.class
com\gmail\andersoninfonet\projetorest\service\UsuarioService.class
com\gmail\andersoninfonet\projetorest\controller\ExemploController.class
com\gmail\andersoninfonet\projetorest\security\JwtUserFactory.class
com\gmail\andersoninfonet\projetorest\security\filters\JwtAuthenticationTokenFilter.class
com\gmail\andersoninfonet\projetorest\security\dto\JwtAuthenticationDto.class
com\gmail\andersoninfonet\projetorest\repository\EmpresaRepository.class
